<?xml version="1.0" encoding="UTF-8"?>
<svg width="150px" height="150px" viewBox="0 0 150 150" version="1.1" xmlns="http://www.w3.org/2000/svg" xmlns:xlink="http://www.w3.org/1999/xlink">
    <!-- Generator: Sketch 53 (72520) - https://sketchapp.com -->
    <title>Group 2</title>
    <desc>Created with Sketch.</desc>
    <defs>
        <polygon id="path-1" points="0 0.000642857143 149.999143 0.000642857143 149.999143 150 0 150"></polygon>
    </defs>
    <g id="registro" stroke="none" stroke-width="1" fill="none" fill-rule="evenodd">
        <g id="13-registro" transform="translate(-645.000000, -204.000000)">
            <g id="Group-4" transform="translate(265.000000, -1.000000)">
                <g id="Group-2" transform="translate(380.000000, 205.000000)">
                    <g id="Page-1">
                        <g id="Group-3">
                            <mask id="mask-2" fill="white">
                                <use xlink:href="#path-1"></use>
                            </mask>
                            <g id="Clip-2"></g>
                            <path d="M74.9991429,140.164929 C39.0677143,140.164929 9.837,110.929929 9.837,75.0006429 C9.837,39.0692143 39.0655714,9.8385 74.9991429,9.8385 C110.930571,9.8385 140.161286,39.0692143 140.161286,75.0006429 C140.163429,110.929929 110.930571,140.164929 74.9991429,140.164929 M74.9991429,0.000642857143 C33.642,0.000642857143 -0.000857142857,33.6456429 -0.000857142857,75.0006429 C-0.000857142857,116.355643 33.642,150.000643 74.9991429,150.000643 C116.354143,150.000643 149.999143,116.355643 149.999143,75.0006429 C149.999143,33.6456429 116.354143,0.000642857143 74.9991429,0.000642857143" id="Fill-1" fill="#00BF8E" mask="url(#mask-2)"></path>
                        </g>
                        <path d="M102.153,50.4473571 L63.4787143,89.1195 L47.8444286,73.4895 C45.9244286,71.5695 42.813,71.5695 40.8908571,73.4916429 C38.9687143,75.4116429 38.9687143,78.5252143 40.8908571,80.4452143 L60.0008571,99.5552143 C60.9608571,100.513071 62.2187143,100.993071 63.4787143,100.993071 C64.7365714,100.993071 65.9987143,100.513071 66.9565714,99.5530714 C66.9608571,99.5487857 66.963,99.5445 66.9672857,99.5402143 L109.106571,57.4009286 C111.028714,55.4830714 111.028714,52.3673571 109.106571,50.4473571 C107.186571,48.5273571 104.073,48.5273571 102.153,50.4473571" id="Fill-4" fill="#00BF8E"></path>
                    </g>
                </g>
            </g>
        </g>
    </g>
</svg>